;Year;Pessismistic;Optimistic
72;2030;2810.332;2810.332
73;2030;4836333.29375;12037199.6607
142;2030;439892.564428;562771.52453
114;2030;41495.336;41495.336
152;2030;421632.030847;437418.563915
164;2030;4439048.49305;4506929.57195
34;2030;14135939.2569;19855684.4928
160;2030;581912.728;581912.728
126;2030;535878.0;535878.0
157;2030;928250.0;928250.0
75;2030;924928.537;924928.537
110;2030;63406.5926667;63406.5926667
129;2030;2619681.99049;2714072.17423
175;2030;3193528.81916;3255759.10557
161;2030;258232.884;258232.884
174;2030;900688.591418;988117.557034
97;2030;337175.016667;337175.016667
173;2030;963020.434916;1130272.35283
149;2030;27705.725;27705.725
74;2030;1766841.37673;1963515.97898
22;2030;1147255.5737;1147255.5737
13;2030;109157.9328;109157.9328
35;2030;214000.0;214000.0
133;2030;635776.245;635776.245
50;2030;374240.75;374240.75
30;2030;623072.814222;623072.814222
102;2030;649139.468178;726632.856812
81;2030;1057466.81;1057466.81
83;2030;286654.549873;307849.54993
7;2030;448496.163299;455545.472522
-1;2030;52613970.3716;69396768.1398