175;8;14;24;41;43;44;46;54;57;58;62;64;71;77;79;88;93;94;99;109;122;123;128;138;139;143;148;162
176;3;4;16;21;25;26;27;29;31;32;37;38;40;45;47;50;52;53;55;59;60;63;66;67;84;90;91;92;95;96;98;100;101;104;105;107;112;113;130;132;134;136;141;142;145;147;154;156;159;171;172;163
177;6;9;11;61;75;76;78;82;85;89;115;125;133;150;157;161;170
178;7;23;56;74;97;110;118;121;131;137;140;152;167
179;1;12;18;28;34;35;73;81;83;86;87;103;106;108;116;126;144;151;158;169;166
180;2;13;20;72;114;127;129;135;149;153;160
181;5;10;15;19;22;33;36;39;42;48;49;51;65;68;69;70;80;102;111;117;119;120;124;146;165;168;155
182;17;30;164
183;173;174